{
    "title": "Uk",
    "description": "A classical UK Keyboard",
	"cols": 13,
    "rows": 5,
    "normal_1": [
        ["1", "1", "1", 1],    ["2", "2", "2", 1],
        ["3", "3", "3", 1],    ["4", "4", "4", 1],    ["5", "5", "5", 1],
        ["6", "6", "6", 1],    ["7", "7", "7", 1],    ["8", "8", "8", 1],
        ["9", "9", "9", 1],    ["0", "0", "0", 1],    ["-", "-", "-", 1],
        ["\u232b", null, "backspace", 2]
    ],
    "normal_2": [
        ["Й", "Й", "Й", 1],    ["Ц", "Ц", "Ц", 1],    ["У", "У", "У", 1],
        ["К", "К", "К", 1],    ["Е", "Е", "Е", 1],    ["Н", "Н", "Н", 1],
        ["Г", "Г", "Г", 1],    ["Ш", "Ш", "Ш", 1],    ["Щ", "Щ", "Щ", 1],
        ["З", "З", "З", 1],    ["Х", "Х", "Х", 1],    ["Ї", "Ї", "Ї", 1],
        ["'", "'", "'", 1]
    ],
    "normal_3": [
        ["Ф", "Ф", "Ф", 1],    ["І", "І", "І", 1],    ["В", "В", "В", 1],
        ["А", "А", "А", 1],    ["П", "П", "П", 1],    ["Р", "Р", "Р", 1],
        ["О", "О", "О", 1],    ["Л", "Л", "Л", 1],    ["Д", "Д", "Д", 1],
        ["Ж", "Ж", "Ж", 1],    ["Є", "Є", "Є", 1],
        ["\u23ce", null, "enter", 2]
    ],
    "normal_4": [
        ["Ґ", "Ґ", "Ґ", 1],    ["Я", "Я", "Я", 1],    ["Ч", "Ч", "Ч", 1],
        ["С", "С", "С", 1],    ["М", "М", "М", 1],    ["И", "И", "И", 1],
        ["Т", "Т", "Т", 1],    ["Ь", "Ь", "Ь", 1],    ["Б", "Б", "Б", 1],
        ["Ю", "Ю", "Ю", 1],    [",", ",", ",", 1],    [".", ".", ".", 1],
        ["\"", "\"", "\"", 1]
    ],
    "normal_5": [
        [" ", " ", "spacebar", 11],  ["\u2a2f", null, "escape", 2]
    ]
}
